{
    "25": {
        "date": "04/05/2020", 
        "country": "Sudan", 
        "cases": 0.86, 
        "fatality": "0", 
        "deaths": 0,
        "continentExp": "Africa"
    }, 
    "20": {
        "date": "04/05/2020", 
        "country": "Senegal", 
        "cases": 0.67, 
        "fatality": "0", 
        "deaths": 0,
        "continentExp": "Africa"
    },  
    "22": {
        "date": "04/05/2020", 
        "country": "Somalia", 
        "cases": 0.51, 
        "fatality": "0.0196078431373", 
        "deaths": 0.01,
        "continentExp": "Africa"
    }, 
    "23b": {
        "date": "04/05/2020", 
        "country": "South_Africa", 
        "cases": 4.47, 
        "fatality": "0.0178970917226", 
        "deaths": 0.08,
        "continentExp": "Africa"
    }, 
    "0": {
        "date": "04/05/2020", 
        "country": "Algeria", 
        "cases": 1.79, 
        "fatality": "0.0223463687151", 
        "deaths": 0.04,
        "continentExp": "Africa"
    },  
    "4": {
        "date": "04/05/2020", 
        "country": "Cote_dIvoire", 
        "cases": 0.36, 
        "fatality": "0.0555555555556", 
        "deaths": 0.02,
        "continentExp": "Africa"
    }, 
    "6b": {
        "date": "04/05/2020", 
        "country": "Egypt", 
        "cases": 2.72, 
        "fatality": "0.0514705882353", 
        "deaths": 0.14,
        "continentExp": "Africa"
    }, 
    "9": {
        "date": "04/05/2020", 
        "country": "Guinea_Bissau", 
        "cases": 0.35, 
        "fatality": "0.0285714285714", 
        "deaths": 0.01,
        "continentExp": "Africa"
    }, 
    "15": {
        "date": "04/05/2020", 
        "country": "Morocco", 
        "cases": 1.74, 
        "fatality": "0.00574712643678", 
        "deaths": 0.01,
        "continentExp": "Africa"
    }, 
    "18": {
        "date": "04/05/2020", 
        "country": "Nigeria", 
        "cases": 1.70, 
        "fatality": "0.0117647058824", 
        "deaths": 0.02,
        "continentExp": "Africa"
    },
    "43": {
        "date": "04/05/2020", 
        "country": "Ukraine", 
        "cases": 5.02, 
        "fatality": "0.0179282868526", 
        "deaths": 0.09,
        "continentExp": "Africa"
    },  
    "21": {
        "date": "04/05/2020", 
        "country": "Ireland", 
        "cases": 3.30, 
        "fatality": "0.115151515152", 
        "deaths": 0.38,
        "continentExp": "Europe"
    }, 
    "23": {
        "date": "04/05/2020", 
        "country": "Italy", 
        "cases": 13.89, 
        "fatality": "0.125269978402", 
        "deaths": 1.74,
        "continentExp": "Europe"
    }, 
    "44": {
        "date": "04/05/2020", 
        "country": "United_Kingdom", 
        "cases": 43.39, 
        "fatality": "0.0725973726665", 
        "deaths": 3.15,
        "continentExp": "Europe"
    },  
    "5": {
        "date": "04/05/2020", 
        "country": "Belarus", 
        "cases": 8.77, 
        "fatality": "0.00228050171038", 
        "deaths": 0.02,
        "continentExp": "Europe"
    }, 
    "6": {
        "date": "04/05/2020", 
        "country": "Belgium", 
        "cases": 3.89, 
        "fatality": "0.203084832905", 
        "deaths": 0.79,
        "continentExp": "Europe"
    },    
    "17": {
        "date": "04/05/2020", 
        "country": "Germany", 
        "cases": 6.79, 
        "fatality": "0.0633284241532", 
        "deaths": 0.43,
        "continentExp": "Europe"
    },   
    "31": {
        "date": "04/05/2020", 
        "country": "Netherlands", 
        "cases": 3.35, 
        "fatality": "0.205970149254", 
        "deaths": 0.69,
        "continentExp": "Europe"
    },  
    "37": {
        "date": "04/05/2020", 
        "country": "Russia", 
        "cases": 106.33, 
        "fatality": "0.00545471644879", 
        "deaths": 0.58,
        "continentExp": "Europe"
    }, 
    "36": {
        "date": "04/05/2020", 
        "country": "Romania", 
        "cases": 4.31, 
        "fatality": "0.0208816705336", 
        "deaths": 0.9,
        "continentExp": "Europe"
    },
    "23c": {
        "date": "04/05/2020", 
        "country": "United_States_of_America", 
        "cases": 249.72, 
        "fatality": "0.0519381707512", 
        "deaths": 12.97,
        "continentExp": "America"
    }, 
    "3": {
        "date": "04/05/2020", 
        "country": "Bolivia", 
        "cases": 1.24, 
        "fatality": "0.0403225806452", 
        "deaths": 0.05,
        "continentExp": "America"
    }, 
    "5b": {
        "date": "04/05/2020", 
        "country": "Canada", 
        "cases": 27.60, 
        "fatality": "0.0420289855072", 
        "deaths": 1.16,
        "continentExp": "America"
    }, 
    "4b": {
        "date": "04/05/2020", 
        "country": "Brazil", 
        "cases": 45.88, 
        "fatality": "0.0599389712293", 
        "deaths": 2.75,
        "continentExp": "America"
    }, 
    "7": {
        "date": "04/05/2020", 
        "country": "Colombia", 
        "cases": 3.83, 
        "fatality": "0.0417754569191", 
        "deaths": 0.16,
        "continentExp": "America"
    }, 
    "6c": {
        "date": "04/05/2020", 
        "country": "Chile", 
        "cases": 12.28, 
        "fatality": "0.0105863192182", 
        "deaths": 0.13,
        "continentExp": "America"
    }, 
    "11": {
        "date": "04/05/2020", 
        "country": "Ecuador", 
        "cases": 20.74, 
        "fatality": "0.0930568948891", 
        "deaths": 1.93,
        "continentExp": "America"
    }, 
    "10": {
        "date": "04/05/2020", 
        "country": "Dominican_Republic", 
        "cases": 3.76, 
        "fatality": "0.0186170212766", 
        "deaths": 0.07,
        "continentExp": "America"
    },  
    "16": {
        "date": "04/05/2020", 
        "country": "Mexico", 
        "cases": 13.83, 
        "fatality": "0.0672451193059", 
        "deaths": 0.93,
        "continentExp": "America"
    }, 
    "19": {
        "date": "04/05/2020", 
        "country": "Peru", 
        "cases": 33.94, 
        "fatality": "0.0253388332351", 
        "deaths": 0.86,
        "continentExp": "America"
    }
}