{
  "0": {
    "name": "kbn_network",
    "size": 10
  },
  "1": {
    "name": "Maria",
    "size": 5
  },
  "2": {
    "name": "Dave",
    "size": 9
  },
  "3": {
    "name": "Jhon",
    "size": 12
  },
  "4": {
    "name": "Sara",
    "size": 16
  },
  "5": {
    "name": "Lemar",
    "size": 2
  },
  "6": {
    "name": "Dawn",
    "size": 1
  },
  "7": {
    "name": "Jesus",
    "size": 8
  },
  "8": {
    "name": "Bitergia",
    "size": 3
  },
  "9": {
    "name": "URJC",
    "size": 6
  },
  "10": {
    "name": "Alice",
    "size": 22
  },
  "20": {
    "name": "Pete",
    "size": 2
  },
  "40": {
    "name": "Seth",
    "size": 6
  },
  "80": {
    "name": "Martin",
    "size": 9
  }
}